{
  "cardResults": [
    {
      "cardHolderName": "DANIEL ORTIZ",
      "cardNumber": "5622145233685478",
      "cardMonth": "11",
      "cardYear": "2025",
      "cardCvv": "127",
      "cardColor": null,
      "cardType": "CREDIT"
    },
    {
      "cardHolderName": "MARLON VERA",
      "cardNumber": "5622156844789328",
      "cardMonth": "08",
      "cardYear": "2024",
      "cardCvv": "125",
      "cardColor": null,
      "cardType": "CREDIT"
    },
    {
      "cardHolderName": "JORGE SUAREZ",
      "cardNumber": "5622145233685478",
      "cardMonth": "11",
      "cardYear": "2025",
      "cardCvv": "127",
      "cardColor": null,
      "cardType": "CREDIT"
    },
    {
      "cardHolderName": "JUAN PEREZ",
      "cardNumber": "5622156844789328",
      "cardMonth": "08",
      "cardYear": "2024",
      "cardCvv": "125",
      "cardColor": null,
      "cardType": "CREDIT"
    }
  ]
}
